{
    "version": "https://jsonfeed.org/version/1",
    "title": "ivi.se",
    "description": "",
    "home_page_url": "https://ivi.se",
    "feed_url": "https://ivi.se/feed.json",
    "user_comment": "",
    "icon": "https://ivi.se/media/website/Logo_Medium-2.jpg",
    "author": {
        "name": "Hamed"
    },
    "items": [
        {
            "id": "https://ivi.se/product-two-2.html",
            "url": "https://ivi.se/product-two-2.html",
            "title": "Announcement",
            "summary": "After nearly 10 years of providing hosting and cloud solutions to our customers, we are phasing out our hosting services to focus on our IT consulting services. Our new website will be up and running soon. Thank you and best regards; — Aivivid Information and&hellip;",
            "content_html": "<p>After nearly 10 years of providing hosting and cloud solutions to our customers, we are phasing out our hosting services to focus on our IT consulting services.<br><br>Our new website will be up and running soon.<br><br>Thank you and best regards;<br><br>— Aivivid Information and Communication Technologies.</p>",
            "author": {
                "name": "Hamed"
            },
            "tags": [
            ],
            "date_published": "2021-04-05T16:40:16+02:00",
            "date_modified": "2022-01-06T22:09:57+01:00"
        }
    ]
}
